-
-
-
-
-
-
-
-
-
-
-
-
-
-
-
-
-
-
-
-
-
-
-
-
-
-
-
-
-
-
-
-
-
-
-
-
4 5 
0 7 
4 7 
6 12 
2 0 12 
5 2 
0 6 21 
4 0 12 
0 7 
6 9 
5 6 11 
0 
3 4 14 
0 
4 0 12 
0 
2 7 
2 2 
4 5 
0 
4 9 
6 4 
2 5 17 
5 2 
4 9 
0 7 
0 9 
5 6 13 
0 
2 5 17 
6 5 6 
0 
0 7 
0 
0 5 
1 6 19 
5 4 
0 
0 9 
0 5 
2 2 
4 5 
0 
1 12 
6 9 
0 9 
4 5 
5 6 11 
0 7 
0 
4 7 
4 0 12 
5 6 13 
0 9 
0 9 
1 6 21 
4 7 
0 9 
0 
5 4 
2 5 6 15 
4 7 
1 5 17 
2 5 17 
3 4 14 
6 9 
6 5 6 
1 15 
5 4 
2 2 
5 6 13 
5 2 
0 4 14 
6 9 
0 
6 7 
5 15 
2 7 
2 0 12 
6 4 
2 5 6 
5 15 
1 6 19 
0 
4 7 
0 
1 15 
2 5 17 
0 
6 9 
0 
5 4 
5 9 
4 5 
0 
3 9 
1 12 
6 9 
4 9 
2 5 17 
1 5 17 
1 5 17 
0 4 14 
1 12 
2 5 6 
2 5 6 15 
2 7 
2 2 
6 4 
5 4 
0 9 
4 7 
6 12 
4 9 
2 5 6 
4 6 19 
1 15 
0 
6 9 
0 6 21 
0 
4 0 12 
5 6 11 
1 5 17 
2 0 12 
2 7 
4 7 
6 9 
5 6 13 
4 6 11 
2 5 17 
0 4 14 
4 6 19 
2 5 6 15 
2 7 
0 
0 5 
3 9 
1 5 17 
6 5 6 
6 12 
2 5 17 
5 2 
2 5 17 
3 9 
0 9 
0 
0 7 
6 9 
3 4 14 
3 6 13 
0 
0 4 14 
4 5 
5 15 
2 5 6 15 
3 6 15 
4 7 
4 5 
0 
0 
0 
4 6 11 
5 15 
6 5 6 
0 
5 2 
1 12 
0 
6 7 
0 
0 
1 5 17 
0 5 
2 5 6 
3 4 14 
3 6 21 
3 6 13 
4 6 19 
6 7 
1 12 
0 
1 12 
2 0 12 
2 5 6 
0 
5 4 
0 5 
2 2 
1 5 17 
0 
2 2 
1 15 
1 6 19 
0 
1 12 
0 
4 9 
1 12 
1 6 21 
5 2 
2 5 17 
0 7 
6 5 6 
0 9 
4 0 12 
1 15 
5 9 
3 9 
4 7 
5 6 13 
6 9 
0 6 21 
4 6 19 
1 15 
2 0 12 
0 
6 4 
5 6 13 
5 4 
0 
6 9 
6 4 
1 6 21 
2 5 6 15 
0 9 
0 9 
6 9 
5 15 
0 9 
6 5 6 
0 
5 4 
1 6 19 
2 0 12 
1 6 21 
5 9 
0 
3 6 21 
3 9 
4 6 19 
0 
5 15 
5 6 13 
2 5 6 15 
0 
0 
2 7 
2 5 17 
0 
5 6 13 
5 2 
1 6 21 
4 6 11 
1 15 
4 7 
0 
1 6 19 
1 12 
1 6 21 
0 
3 9 
3 6 13 
2 5 6 15 
6 7 
0 7 
0 4 14 
4 6 19 
2 7 
6 12 
5 15 
0 4 14 
6 9 
0 
4 7 
1 15 
4 0 12 
0 
5 2 
3 6 15 
6 12 
5 6 11 
3 4 14 
0 
0 4 14 
6 7 
4 6 11 
0 4 14 
0 
1 5 17 
3 6 21 
0 
1 15 
6 9 
0 
2 0 12 
2 2 
1 15 
4 6 11 
1 5 17 
1 6 21 
6 4 
5 6 11 
0 6 21 
1 12 
0 
0 7 
2 7 
0 
0 5 
0 
2 7 
4 6 19 
3 6 21 
6 7 
3 4 14 
2 5 17 
4 6 19 
5 2 
0 5 
1 5 17 
1 6 21 
5 2 
0 5 
1 15 
6 12 
5 15 
6 9 
1 5 17 
1 6 21 
6 9 
1 5 17 
4 9 
1 6 21 
5 15 
5 6 11 
0 
4 5 
4 0 12 
2 5 6 
0 6 21 
5 6 11 
1 15 
4 0 12 
5 6 11 
0 9 
5 4 
5 9 
2 0 12 
0 9 
0 
3 4 14 
6 9 
5 6 13 
1 15 
0 6 21 
5 6 11 
3 9 
0 6 21 
6 4 
3 9 
0 
0 
1 12 
1 12 
0 
1 12 
3 4 14 
6 9 
1 15 
5 9 
0 4 14 
4 9 
0 7 
2 5 6 
0 9 
4 5 
4 6 19 
4 6 11 
5 4 
3 6 21 
2 0 12 
0 9 
4 6 11 
5 6 13 
3 6 15 
0 
5 9 
5 4 
2 2 
3 6 21 
2 7 
1 12 
1 6 21 
3 6 13 
0 9 
6 5 6 
3 4 14 
6 4 
5 2 
0 
4 6 11 
3 6 21 
3 9 
0 5 
4 6 19 
5 4 
2 0 12 
4 6 19 
5 9 
0 
0 
1 5 17 
4 5 
0 7 
3 9 
1 15 
4 0 12 
0 
1 6 19 
3 9 
0 
3 9 
1 6 21 
0 9 
0 
5 6 11 
