-
-
-
-
-
-
-
-
-
-
-
-
-
-
-
-
-
-
-
-
-
-
-
-
-
-
-
-
-
-
-
-
-
-
-
-
-
-
-
-
-
-
-
-
-
-
-
-
-
-
-
-
-
-
-
-
-
-
-
-
-
-
-
-
-
-
-
-
-
-
-
-
-
-
-
-
-
-
-
-
-
-
-
-
-
-
-
-
-
-
-
-
-
-
-
-
-
-
-
-
-
-
-
-
-
-
-
-
-
-
-
-
-
-
-
-
-
-
-
-
-
-
-
-
-
-
-
-
-
-
-
-
-
-
-
-
-
-
-
-
-
-
-
-
-
-
-
-
-
-
-
-
-
-
-
-
-
-
-
-
-
-
-
-
-
-
-
-
-
-
-
-
-
-
-
-
-
-
-
-
-
-
-
-
-
-
-
-
-
-
-
-
-
-
-
-
-
-
-
-
-
-
-
-
-
-
-
-
-
-
-
-
-
-
-
-
-
-
-
-
-
-
-
-
-
-
-
-
-
-
-
-
-
-
-
-
-
-
-
-
-
-
-
-
-
-
-
-
-
-
-
-
-
-
-
-
-
-
-
-
-
-
-
-
-
-
-
-
-
-
-
-
-
-
-
-
-
-
-
-
-
-
-
-
-
-
-
-
-
-
-
-
-
-
-
-
-
-
-
-
-
-
-
-
-
-
-
-
-
-
-
-
-
-
-
-
-
-
-
-
-
-
-
-
-
-
-
-
-
-
-
-
-
-
-
-
-
-
-
-
-
-
-
-
-
-
-
-
-
-
-
-
-
-
-
-
-
-
-
-
-
-
-
-
-
-
-
-
-
-
-
-
-
-
-
-
-
-
-
-
-
-
-
-
-
-
-
-
-
-
-
-
-
-
-
-
-
-
-
-
-
-
-
-
-
-
-
-
-
-
-
-
-
-
-
-
-
-
-
-
-
-
-
-
-
-
-
-
-
-
-
-
-
-
-
-
-
-
-
-
-
-
-
-
-
-
-
-
-
-
-
-
-
-
-
-
-
-
-
-
-
-
-
-
-
-
-
-
-
-
-
-
-
-
-
-
-
-
-
-
-
-
-
-
-
-
-
-
-
-
-
-
-
-
-
-
-
-
-
-
-
-
-
-
-
-
-
-
-
-
-
-
-
-
-
-
-
-
-
-
-
-
-
-
-
-
-
-
-
-
-
-
-
-
-
-
-
-
-
-
-
-
-
-
-
-
-
-
-
-
-
-
-
-
-
-
-
-
-
-
-
-
-
-
-
-
-
-
-
-
-
-
-
-
-
-
-
-
-
-
-
-
-
-
-
-
-
-
-
-
-
-
-
-
-
-
-
-
-
-
-
-
-
-
-
-
-
-
-
-
-
-
-
-
-
-
-
-
-
-
-
-
-
-
-
-
-
-
-
-
-
-
-
-
-
-
-
-
-
-
-
-
-
-
-
-
-
-
-
-
-
-
-
-
-
-
-
-
-
-
-
-
-
-
-
-
-
-
-
-
-
-
-
-
-
-
-
-
-
-
-
-
-
-
-
-
-
-
-
-
-
-
-
-
-
-
-
-
-
-
-
-
-
-
-
-
-
-
-
-
-
-
-
-
-
-
-
-
-
-
-
-
-
-
-
-
-
-
-
-
-
-
-
-
-
-
-
-
-
-
-
-
-
-
-
-
-
-
-
-
-
-
-
-
-
-
-
-
-
-
-
-
-
-
-
-
-
-
-
-
-
-
-
-
-
-
-
-
-
-
-
-
-
-
-
-
-
-
-
-
-
-
-
-
-
-
-
-
-
-
-
-
-
-
-
-
-
-
-
-
-
-
-
-
-
-
-
-
-
-
-
-
-
-
-
-
-
-
-
-
-
-
-
-
-
-
-
-
-
-
-
-
-
-
-
-
-
0 :94,19 114,9 142,2 9,45 30,17 8,12 71,7 134,46 43,35 131,31 98,38 50,35 28,25 
1 :77,19 25,30 117,22 8,21 153,15 148,13 49,47 
2 :77,50 51,26 11,34 17,47 133,28 99,48 153,33 27,9 155,15 46,22 144,35 8,48 20,40 
3 :65,4 142,31 144,20 120,10 55,4 106,45 64,3 27,47 
4 :93,48 52,2 36,41 110,9 128,40 44,49 115,17 75,8 46,43 90,36 157,14 114,48 146,21 33,26 
5 :61,10 154,4 39,17 28,11 102,16 
6 :50,43 34,29 36,37 53,13 123,21 19,24 11,17 18,49 52,36 141,32 
7 :90,7 36,43 53,41 151,16 13,41 21,33 78,23 136,20 
8 :89,14 47,31 94,33 13,11 133,48 1,21 142,27 10,16 28,21 0,12 147,36 39,25 2,48 128,46 95,14 41,17 73,49 121,16 81,6 
9 :94,23 58,11 69,33 0,45 63,11 28,44 125,47 146,38 151,48 
10 :18,28 135,36 152,7 55,1 48,40 58,4 16,29 26,28 147,12 8,16 107,31 146,7 156,1 134,12 29,5 144,35 80,34 98,11 133,35 
11 :120,10 64,33 125,33 59,5 2,34 74,48 75,36 138,39 26,14 6,17 157,4 145,31 
12 :41,2 154,34 76,35 111,16 152,18 59,1 58,37 74,21 144,36 93,30 
13 :152,50 50,33 8,11 74,29 82,41 81,5 116,37 14,27 123,3 42,5 7,41 
14 :90,18 23,2 51,35 137,27 29,25 13,27 141,44 89,11 
15 :86,7 100,34 132,14 57,37 116,47 114,37 33,2 59,32 44,49 104,12 155,27 113,11 
16 :140,26 10,29 65,50 47,16 115,49 45,47 32,22 88,23 122,25 154,28 
17 :26,15 55,21 2,47 144,39 122,5 98,34 130,5 34,12 37,42 100,12 
18 :123,32 35,3 25,26 10,28 85,1 36,8 66,4 71,41 92,26 63,15 6,49 151,48 121,34 62,6 119,28 
19 :79,17 27,34 105,29 94,41 6,24 155,21 101,13 20,40 110,13 89,24 
20 :123,41 60,18 51,30 25,48 42,48 37,33 39,27 91,28 2,40 19,40 35,13 
21 :75,32 47,19 107,5 69,44 38,13 156,12 78,49 39,5 62,24 7,33 
22 :62,18 93,15 159,30 148,46 144,20 95,34 74,47 
23 :77,32 134,39 92,13 56,5 14,2 91,37 138,13 155,42 90,4 139,21 133,30 152,9 140,13 
24 :131,43 107,27 30,42 141,1 55,22 84,49 120,16 117,8 
25 :18,26 67,44 65,33 121,18 68,32 1,30 20,48 127,9 80,24 79,10 139,27 
26 :72,46 29,40 17,15 139,17 144,7 10,28 154,44 11,14 66,38 27,36 
27 :148,36 142,46 19,34 2,9 66,44 98,19 152,1 101,16 143,11 63,24 26,36 3,47 
28 :62,39 5,11 8,21 9,44 77,33 105,28 84,24 0,25 
29 :39,35 35,44 55,30 26,40 154,40 116,33 82,23 93,44 144,10 14,25 10,5 147,8 123,41 
30 :106,44 92,24 24,42 158,3 0,17 129,33 41,46 36,6 145,46 39,46 84,12 
31 :101,49 135,33 55,38 67,35 
32 :92,10 44,22 129,24 64,39 128,19 96,18 16,22 156,35 
33 :156,7 95,7 105,21 79,38 15,2 94,2 104,9 153,4 68,22 116,29 4,26 
34 :56,46 129,28 74,35 6,29 41,3 89,33 66,45 43,34 108,2 17,12 112,23 
35 :18,3 29,44 152,6 159,25 50,39 60,13 44,7 125,2 107,45 20,13 
36 :18,8 6,37 51,8 7,43 4,41 153,35 104,15 152,47 42,40 30,6 46,3 
37 :135,49 99,14 75,40 112,30 126,31 20,33 115,41 39,29 17,42 69,40 
38 :94,50 111,40 21,13 99,34 44,9 116,39 40,3 
39 :29,35 101,40 123,23 125,25 117,48 5,17 70,32 37,29 8,25 20,27 82,9 68,12 60,2 72,41 21,5 30,46 122,10 
40 :145,5 78,20 77,28 48,1 72,22 102,16 114,24 38,3 
41 :66,43 151,18 120,5 12,2 140,12 34,3 130,5 129,15 56,16 64,9 30,46 134,15 153,34 8,17 
42 :156,45 140,12 20,48 93,50 36,40 13,5 134,4 137,14 97,37 
43 :66,4 60,25 77,7 34,34 0,35 112,38 147,26 
44 :112,18 32,22 151,21 131,42 4,49 35,7 76,44 15,49 38,9 85,30 80,35 
45 :49,14 72,32 52,23 129,19 154,7 93,10 16,47 95,12 
46 :115,25 57,11 145,11 2,22 97,8 154,29 4,43 36,3 91,29 
47 :149,48 90,28 8,31 21,19 144,21 16,16 59,17 127,12 
48 :54,21 10,40 87,11 100,28 151,13 74,10 40,1 137,8 
49 :79,11 53,48 66,4 132,18 45,14 136,29 137,26 107,25 91,45 86,48 1,47 147,50 
50 :110,9 6,43 13,33 60,27 35,39 102,21 113,10 139,10 136,15 126,10 111,26 143,15 145,30 107,44 0,35 
51 :36,8 133,27 20,30 14,35 2,26 77,42 
52 :120,16 4,2 64,25 72,49 45,23 92,29 109,44 77,4 6,36 
53 :146,13 49,48 6,13 7,41 156,40 81,46 69,22 84,39 133,34 65,14 71,3 142,3 
54 :119,13 48,21 103,8 89,44 71,15 122,17 56,34 87,3 85,10 144,39 65,10 82,36 134,23 145,6 
55 :108,49 29,30 116,9 10,1 113,24 17,21 75,50 96,6 137,6 143,17 24,22 3,4 106,47 31,38 126,2 95,11 76,28 120,18 
56 :34,46 134,2 138,20 159,17 23,5 107,49 54,34 41,16 74,26 145,25 
57 :151,10 106,14 116,27 15,37 46,11 147,48 145,26 157,18 118,44 142,17 
58 :9,11 63,3 10,4 147,27 74,16 12,37 87,15 
59 :11,5 151,42 134,8 12,1 15,32 60,48 84,11 47,17 
60 :43,25 20,18 50,27 35,13 156,33 61,24 136,3 59,48 39,2 
61 :122,28 102,25 5,10 133,12 60,24 79,16 114,23 67,8 126,22 
62 :116,36 109,24 126,11 28,39 22,18 128,29 122,7 85,26 18,6 21,24 
63 :98,30 72,43 58,3 113,22 82,4 9,11 114,45 103,2 18,15 27,24 
64 :70,21 117,20 11,33 148,4 86,41 132,13 52,25 32,39 100,22 110,2 78,31 41,9 93,11 141,47 105,26 3,3 
65 :3,4 109,5 25,33 104,50 124,42 85,41 16,50 89,49 53,14 54,10 
66 :41,43 107,2 43,4 49,4 34,45 108,15 18,4 126,21 27,44 26,38 142,19 101,25 105,24 
67 :73,10 93,42 25,44 72,40 128,33 138,39 61,8 31,35 
68 :128,21 25,32 81,3 39,12 33,22 96,18 
69 :85,40 118,32 21,44 94,8 71,44 9,33 156,44 53,22 145,33 121,1 97,20 37,40 
70 :64,21 71,21 82,13 128,25 147,29 39,32 99,4 141,17 81,30 
71 :124,1 70,21 69,44 54,15 91,18 139,30 100,9 18,41 116,14 0,7 130,38 86,44 94,31 53,3 134,4 98,13 133,39 
72 :26,46 63,43 45,32 52,49 95,2 67,40 145,28 84,11 40,22 75,38 39,41 
73 :67,10 153,31 121,50 78,11 98,32 154,11 83,49 8,49 114,30 
74 :122,27 155,23 34,35 13,29 144,37 11,48 58,16 130,2 48,10 12,21 150,29 111,3 120,48 56,26 22,47 
75 :21,32 87,45 77,11 55,50 120,23 37,40 11,36 78,20 72,38 4,8 138,48 
76 :81,48 12,35 95,41 44,44 106,31 130,13 146,38 122,27 55,28 
77 :101,39 23,32 40,28 89,27 2,50 90,13 1,19 75,11 98,29 51,42 43,7 86,3 28,33 158,10 52,4 87,31 100,41 
78 :145,18 106,19 40,20 115,30 98,10 150,23 83,44 73,11 21,49 64,31 75,20 7,23 113,37 
79 :136,27 49,11 19,17 33,38 85,30 119,27 135,19 61,16 91,47 25,10 
80 :99,35 130,1 136,6 154,41 117,36 25,24 44,35 10,34 140,20 104,50 
81 :124,43 112,29 76,48 53,46 13,5 68,3 119,6 70,30 152,21 8,6 104,45 
82 :87,1 70,13 103,31 29,23 63,4 13,41 84,3 39,9 54,36 83,19 
83 :146,9 78,44 111,20 132,19 159,37 155,24 82,19 73,49 
84 :133,3 156,9 53,39 24,49 82,3 72,11 121,12 86,11 138,19 97,9 59,11 122,5 108,32 28,24 30,12 131,23 135,43 
85 :69,40 18,1 152,18 128,6 153,45 91,13 65,41 79,30 118,18 54,10 44,30 62,26 
86 :92,11 15,7 119,43 107,23 64,41 77,3 84,11 71,44 91,15 123,44 49,48 
87 :82,1 75,45 48,11 54,3 104,42 129,5 77,31 118,28 58,15 158,21 
88 :120,37 128,2 127,23 155,4 130,47 91,26 108,39 16,23 90,44 117,13 152,45 157,7 
89 :8,14 136,25 128,2 54,44 77,27 34,33 65,49 152,48 98,22 14,11 19,24 
90 :47,28 7,7 77,13 14,18 88,44 143,45 23,4 136,38 141,49 4,36 91,48 
91 :104,34 85,13 23,37 139,10 71,18 49,45 118,11 88,26 112,12 137,41 86,15 79,47 20,28 102,2 46,29 90,48 
92 :86,11 152,31 30,24 32,10 133,21 23,13 52,29 18,26 104,26 
93 :151,3 67,42 122,11 4,48 29,44 22,15 42,50 45,10 64,11 12,30 
94 :38,50 9,23 0,19 8,33 154,38 69,8 124,38 33,2 19,41 98,47 71,31 117,39 136,46 108,32 
95 :33,7 154,43 99,28 122,2 72,2 76,41 151,14 107,48 135,9 22,34 8,14 45,12 55,11 
96 :121,20 154,11 55,6 32,18 120,5 68,18 
97 :154,28 136,7 46,8 150,24 84,9 69,20 42,37 
98 :63,30 101,13 77,29 78,10 94,47 17,34 89,22 27,19 73,32 0,38 71,13 10,11 
99 :80,35 131,16 152,45 37,14 154,11 95,28 2,48 38,34 117,18 70,4 110,27 
100 :15,34 64,22 48,28 71,9 126,36 110,4 17,12 159,25 77,41 
101 :77,39 98,13 39,40 156,28 149,22 31,49 140,26 112,42 104,23 108,9 119,32 66,25 19,13 27,16 133,48 110,2 
102 :61,25 50,21 146,11 109,17 40,16 134,47 91,2 141,38 5,16 113,48 125,22 
103 :106,39 54,8 82,31 117,43 63,2 151,34 
104 :146,43 91,34 65,50 137,42 133,10 36,15 33,9 101,23 15,12 148,24 115,38 157,2 87,42 107,46 92,26 80,50 81,45 
105 :142,42 33,21 19,29 28,28 64,26 66,24 
106 :30,44 57,14 132,28 78,19 103,39 137,10 141,31 136,13 151,14 55,47 76,31 114,14 152,44 3,45 
107 :128,41 66,2 24,27 86,23 21,5 56,49 49,25 10,31 35,45 95,48 132,36 104,46 50,44 
108 :55,49 66,15 130,48 140,5 88,39 34,2 101,9 84,32 94,32 154,36 
109 :62,24 65,5 125,24 102,17 52,44 127,43 152,2 119,10 146,42 
110 :50,9 138,29 4,9 64,2 100,4 133,12 19,13 101,2 99,27 
111 :38,40 124,6 83,20 12,16 50,26 74,3 
112 :81,29 44,18 37,30 101,42 91,12 43,38 34,23 
113 :142,5 55,24 122,16 123,7 63,22 121,35 50,10 148,22 15,11 102,48 78,37 
114 :0,9 15,37 63,45 106,14 61,23 40,24 137,11 4,48 73,30 
115 :78,30 46,25 128,9 141,24 16,49 4,17 37,41 104,38 
116 :62,36 57,27 55,9 29,33 15,47 13,37 71,14 38,39 153,1 33,29 
117 :64,20 127,14 103,43 39,48 1,22 159,15 99,18 80,36 94,39 88,13 24,8 
118 :133,14 69,32 128,44 145,18 91,11 85,18 57,44 87,28 
119 :54,13 86,43 157,49 79,27 141,19 134,12 81,6 101,32 109,10 18,28 
120 :11,10 41,5 88,37 52,16 75,23 152,29 3,10 96,5 24,16 74,48 150,48 55,18 
121 :96,20 144,18 25,18 73,50 113,35 69,1 84,12 135,9 18,34 8,16 
122 :146,19 61,28 74,27 93,11 113,16 95,2 54,17 124,41 62,7 17,5 16,25 84,5 76,27 39,10 
123 :18,32 39,23 20,41 113,7 6,21 13,3 29,41 133,35 86,44 
124 :81,43 71,1 137,50 111,6 94,38 65,42 135,3 125,11 122,41 
125 :39,25 11,33 109,24 150,45 124,11 35,2 9,47 102,22 
126 :62,11 140,1 66,21 100,36 37,31 133,35 50,10 152,44 55,2 61,22 
127 :117,14 88,23 25,9 109,43 128,21 47,12 
128 :107,41 137,12 68,21 85,6 89,2 88,2 118,44 4,40 32,19 139,39 115,9 70,25 62,29 67,33 140,50 8,46 127,21 142,11 
129 :34,28 32,24 137,10 142,11 45,19 41,15 30,33 87,5 157,45 
130 :80,1 108,48 41,5 88,47 74,2 71,38 17,5 76,13 
131 :24,43 99,16 44,42 145,2 0,31 84,23 
132 :106,28 15,14 49,18 64,13 83,19 144,16 107,36 134,11 
133 :118,14 92,21 51,27 84,3 8,48 2,28 104,10 53,34 126,35 61,12 123,35 142,9 23,30 110,12 101,48 159,38 147,32 71,39 10,35 
134 :23,39 56,2 139,28 59,8 119,12 10,12 0,46 41,15 102,47 71,4 42,4 54,23 132,11 
135 :37,49 10,36 124,3 137,15 31,33 79,19 95,9 121,9 84,43 
136 :79,27 156,17 89,25 49,29 106,13 97,7 80,6 50,15 60,3 90,38 94,46 150,22 7,20 
137 :128,12 124,50 106,10 104,42 55,6 49,26 129,10 14,27 135,15 91,41 114,11 48,8 42,14 
138 :148,35 110,29 56,20 23,13 67,39 11,39 84,19 75,48 
139 :26,17 134,28 91,10 128,39 71,30 50,10 23,21 153,27 25,27 
140 :41,12 16,26 42,12 101,26 108,5 126,1 128,50 23,13 80,20 
141 :146,9 106,31 24,1 115,24 119,19 64,47 90,49 102,38 70,17 6,32 156,23 14,44 
142 :113,5 105,42 3,31 0,2 150,18 27,46 8,27 129,11 57,17 53,3 143,17 133,9 66,19 128,11 157,49 
143 :55,17 50,15 90,45 142,17 27,11 
144 :121,18 26,7 47,21 3,20 29,10 74,37 17,39 132,16 2,35 22,20 12,36 54,39 10,35 
145 :78,18 40,5 118,18 69,33 57,26 72,28 149,5 46,11 131,2 50,30 11,31 30,46 56,25 54,6 
146 :122,19 53,13 104,43 83,9 141,9 148,30 159,26 149,6 102,11 10,7 157,41 9,38 76,38 109,42 4,21 
147 :58,27 10,12 57,48 70,29 8,36 29,8 158,30 43,26 133,32 49,50 
148 :138,35 64,4 27,36 146,30 1,13 22,46 104,24 113,22 
149 :47,48 101,22 146,6 145,5 
150 :142,18 78,23 125,45 97,24 136,22 74,29 120,48 
151 :57,10 93,3 41,18 59,42 44,21 48,13 95,14 106,14 103,34 7,16 18,48 9,48 159,31 
152 :10,7 92,31 35,6 13,50 85,18 99,45 120,29 12,18 36,47 89,48 106,44 126,44 88,45 109,2 27,1 23,9 81,21 
153 :85,45 73,31 1,15 2,33 36,35 139,27 33,4 116,1 41,34 
154 :97,28 96,11 29,40 94,38 5,4 12,34 95,43 99,11 26,44 80,41 45,7 46,29 16,28 73,11 108,36 
155 :74,23 88,4 2,15 23,42 19,21 15,27 83,24 
156 :33,7 136,17 42,45 101,28 53,40 69,44 84,9 21,12 60,33 10,1 32,35 141,23 
157 :119,49 57,18 146,41 104,2 4,14 142,49 11,4 88,7 129,45 
158 :30,3 77,10 147,30 87,21 
159 :35,25 56,17 146,26 117,15 22,30 83,37 133,38 100,25 151,31 

